module boradb_filler

go 1.20

require github.com/schollz/progressbar/v3 v3.13.1

require (
	github.com/cheggaaa/pb v1.0.29 // indirect
	github.com/mattn/go-runewidth v0.0.14 // indirect
	github.com/mitchellh/colorstring v0.0.0-20190213212951-d06e56a500db // indirect
	github.com/rivo/uniseg v0.4.4 // indirect
	golang.org/x/sys v0.8.0 // indirect
	golang.org/x/term v0.6.0 // indirect
)
